{
  "file_generated_by": "FlutterFire CLI",
  "purpose": "FirebaseAppID & ProjectID for this Firebase app in this directory",
  "GOOGLE_APP_ID": "1:515206863334:ios:14509033c4b644066f5e27",
  "FIREBASE_PROJECT_ID": "loginapp-8a505",
  "GCM_SENDER_ID": "515206863334"
}